84 56 116
105 144 122
144 173 125
10 1 20
101 101 26
149 88 122
148 127 122
92 127 119
43 151 122
51 70 113
179 90 125
144 96 122
38 100 119
97 38 119
159 21 122
158 120 122
139 13 122
155 66 122
95 117 119
58 137 122
108 1 119
23 3 21
160 135 117
165 126 122
112 112 21
50 28 110
172 85 125
139 44 122
93 130 122
5 123 119
87 12 116
117 80 119
17 197 125
7 123 119
73 24 116
27 66 113
185 2 125
175 77 125
134 167 117
62 57 108
120 21 119
68 50 113
135 17 122
145 100 122
72 22 113
116 199 125
121 198 125
99 34 119
191 181 107
51 8 112
52 151 122
158 11 122
151 83 122
143 117 122
18 102 119
158 134 117
24 71 113
141 95 122
198 31 125
143 119 122
185 106 125
11 38 112
96 168 122
17 67 113
179 178 32
124 44 119
12 109 119
109 79 119
129 48 122
27 70 113
135 4 122
165 38 122
187 125 125
106 133 122
134 75 122
90 129 122
26 186 125
32 164 122
83 172 125
71 143 122
92 65 116
32 63 113
141 144 104
153 191 125
31 93 116
128 197 125
38 2 112
57 47 113
78 131 122
155 39 122
110 152 122
197 82 125
5 137 122
51 106 119
99 2 119
147 43 122
74 17 116
16 133 122
136 86 122
121 189 125
196 194 120
97 109 119
77 126 119
55 8 113
164 8 122
136 117 122
3 43 112
78 59 116
156 122 122
197 175 120
104 196 125
86 190 125
5 5 6
38 8 112
81 75 36
81 69 116
139 14 122
73 13 116
64 33 113
134 115 122
42 31 110
133 154 117
86 131 122
39 54 113
177 154 125
83 111 119
91 160 122
23 149 122
80 59 116
161 165 112
112 164 122
156 143 117
157 85 122
169 10 122
7 189 125
129 5 122
4 102 119
78 25 116
164 28 122
32 144 122
99 154 122
122 77 119
131 175 125
193 115 125
103 101 88
138 19 122
195 196 120
46 108 119
66 81 116
198 62 125
44267 566203 470
46238 859723 525
100694 608173 470
72651 113592 354
537687 49495 470
656364 363335 509
437712 239713 449
634607 477046 509
587381 755159 509
914451 229967 525
183 183 94
134 134 29
150 150 16
62 62 108
51 51 25
198 198 27
129 129 122
144 144 24
100 100 26
74 74 23
