....................
----------------------------------------------------------------------
Ran 20 tests in 1.287s

OK
Name             Stmts   Miss Branch BrPart  Cover   Missing
------------------------------------------------------------
Collatz.py          31      0     12      0   100%
TestCollatz.py      91      0      0      0   100%
------------------------------------------------------------
TOTAL              122      0     12      0   100%
